<?xml version="1.0" encoding="UTF-8"?>
<!DOCTYPE svg PUBLIC "-//W3C//DTD SVG 1.1//EN" "http://www.w3.org/Graphics/SVG/1.1/DTD/svg11.dtd">
<!-- Creator: CorelDRAW -->
<svg xmlns="http://www.w3.org/2000/svg" xml:space="preserve" width="500px" height="500px" version="1.1" shape-rendering="geometricPrecision" text-rendering="geometricPrecision" image-rendering="optimizeQuality" fill-rule="evenodd" clip-rule="evenodd"
viewBox="0 0 15.86 15.86"
 xmlns:xlink="http://www.w3.org/1999/xlink"
 xmlns:xodm="http://www.corel.com/coreldraw/odm/2003">
 <g id="Layer_x0020_1">
  <metadata id="CorelCorpID_0Corel-Layer"/>
  <g id="_1391495513008">
   <path fill="white" d="M3.97 0l3.96 0 0 3.97c0,2.18 -1.78,3.96 -3.96,3.96l0 0c-2.19,0 -3.97,-1.78 -3.97,-3.96l0 0c0,-2.19 1.78,-3.97 3.97,-3.97z"/>
   <path fill="white" d="M15.86 7.93l0 -7.93 -7.93 0c0,4.38 3.55,7.93 7.93,7.93z"/>
   <path fill="white" d="M7.93 15.86c0,-4.38 -3.55,-7.93 -7.93,-7.93l0 7.93 7.93 0z"/>
   <path fill="white" d="M15.86 11.9c0,-2.18 -1.78,-3.97 -3.96,-3.97 -2.18,0 -3.97,1.79 -3.97,3.97l0 3.96 3.97 0c2.18,0 3.96,-1.78 3.96,-3.96z"/>
  </g>
 </g>
</svg>
