<?xml version="1.0" encoding="UTF-8"?>
<!DOCTYPE svg PUBLIC "-//W3C//DTD SVG 1.1//EN" "http://www.w3.org/Graphics/SVG/1.1/DTD/svg11.dtd">
<!-- Creator: CorelDRAW -->
<svg xmlns="http://www.w3.org/2000/svg" xml:space="preserve" width="1280px" height="720px" version="1.1" shape-rendering="geometricPrecision" text-rendering="geometricPrecision" image-rendering="optimizeQuality" fill-rule="evenodd" clip-rule="evenodd"
viewBox="0 0 84.43 47.49"
 xmlns:xlink="http://www.w3.org/1999/xlink"
 xmlns:xodm="http://www.corel.com/coreldraw/odm/2003">
 <defs>
    <clipPath id="id0">
     <path d="M0 0l84.43 0 0 47.49 -84.43 0 0 -47.49z"/>
    </clipPath>
 </defs>
 <g id="Layer_x0020_1">
  <metadata id="CorelCorpID_0Corel-Layer"/>
  <g id="_1393187038368">
   <polygon fill="#E70A2B" points="0,0 84.43,0 84.43,47.49 0,47.49 "/>
   <g clip-path="url(#id0)">
    <g>
     <g>
      <path id="_1" fill="#F9C51C" fill-rule="nonzero" d="M60.24 29.47l12.11 0 0 -12.11c-6.69,0 -12.11,5.42 -12.11,12.11z"/>
      <path fill="#FE9395" fill-rule="nonzero" d="M60.24 5.25l12.11 0 0 12.11c-6.69,0 -12.11,-5.42 -12.11,-12.11z"/>
      <path fill="#FE9395" fill-rule="nonzero" d="M84.46 17.36l-12.11 0 0 12.11c6.69,0 12.11,-5.42 12.11,-12.11l0 0z"/>
      <path fill="#FFFDF5" fill-rule="nonzero" d="M84.46 41.58l0 -12.11 -12.11 0c0,6.69 5.42,12.11 12.11,12.11z"/>
      <path fill="#F9C51C" fill-rule="nonzero" d="M72.35 17.36l12.11 0 0 -12.11c-6.69,0 -12.11,5.42 -12.11,12.11z"/>
      <path fill="#FFFDF5" fill-rule="nonzero" d="M96.57 29.47l-12.11 0 0 -12.11c6.69,0 12.11,5.42 12.11,12.11z"/>
      <path fill="#F9C51C" fill-rule="nonzero" d="M84.46 41.58l0.03 0c6.64,-0.02 12.03,-5.37 12.08,-12.01l0 -0.1 -12.11 0 0 12.11z"/>
      <path fill="#F9C51C" fill-rule="nonzero" d="M108.68 17.36l-12.11 0 0 -12.11c6.69,0 12.11,5.42 12.11,12.11z"/>
      <path fill="#FFFDF5" fill-rule="nonzero" d="M108.68 17.36l12.11 0 0 -12.11c-6.69,0 -12.11,5.42 -12.11,12.11l0 0z"/>
      <path fill="#FFFDF5" fill-rule="nonzero" d="M108.68 17.36l0 12.11 -12.11 0c0,-6.69 5.42,-12.11 12.11,-12.11l0 0z"/>
      <path fill="#F15D31" fill-rule="nonzero" d="M108.68 41.58l0 -12.11 -12.11 0c0,6.7 5.42,12.11 12.11,12.11l0 0z"/>
      <path fill="#FE9395" fill-rule="nonzero" d="M108.68 29.47l0 -12.11 12.11 0c0,6.7 -5.42,12.11 -12.11,12.11l0 0z"/>
      <path fill="#FFFDF5" fill-rule="nonzero" d="M108.68 29.47l0 12.11 12.11 0c0,-6.69 -5.42,-12.11 -12.11,-12.11l0 0z"/>
      <path fill="#F15D31" fill-rule="nonzero" d="M72.35 41.58l12.11 0c-6.69,0 -12.11,-5.42 -12.11,-12.11l-12.11 0c0,6.69 5.42,12.11 12.11,12.11z"/>
      <path fill="#F15D31" fill-rule="nonzero" d="M84.49 41.58l12.08 0 0 -12.01c-0.05,6.64 -5.44,11.99 -12.08,12.01z"/>
      <path fill="#F15D31" fill-rule="nonzero" d="M84.49 17.36l-0.03 0 0 -12.11c6.69,0 12.11,5.42 12.11,12.11l0 0 0 12.01c-0.05,-6.63 -5.43,-11.99 -12.07,-12.01l-0.01 0z"/>
      <path fill="#F15D31" fill-rule="nonzero" d="M145.01 41.58l-12.11 0 0 -12.11c6.7,0 12.11,5.42 12.11,12.11z"/>
      <path fill="#F9C51C" fill-rule="nonzero" d="M120.79 41.58l12.11 0 0 -12.11c-6.69,0 -12.11,5.42 -12.11,12.11z"/>
      <path fill="#FE9395" fill-rule="nonzero" d="M145.01 41.58l12.11 0 0 -12.11c-6.69,0 -12.11,5.42 -12.11,12.11l0 0z"/>
      <path fill="#FFFDF5" fill-rule="nonzero" d="M145.02 17.36l0 12.11 -12.12 0c0,-6.69 5.43,-12.11 12.12,-12.11z"/>
      <path fill="#F9C51C" fill-rule="nonzero" d="M145.02 29.47l0.03 0c6.64,-0.02 12.02,-5.37 12.07,-12.01l0 -0.1 -12.1 0 0 12.11z"/>
      <path fill="#FFFDF5" fill-rule="nonzero" d="M120.79 5.25l12.11 0 0 12.11c-6.69,0 -12.11,-5.42 -12.11,-12.11z"/>
      <rect fill="#FE9395" fill-rule="nonzero" x="132.9" y="5.25" width="12.11" height="12.11"/>
      <path fill="#F15D31" fill-rule="nonzero" d="M181.28 41.58l-12.11 0 0 -12.11c6.69,0 12.11,5.42 12.11,12.11z"/>
      <path fill="#FFFDF5" fill-rule="nonzero" d="M181.28 17.36l0 12.11 -12.11 0c0,-6.69 5.42,-12.11 12.11,-12.11z"/>
      <rect fill="#FE9395" fill-rule="nonzero" x="169.17" y="5.25" width="12.11" height="12.11"/>
      <path fill="#FFFDF5" fill-rule="nonzero" d="M145.01 5.25l12.11 0 0 12.11c-6.69,0 -12.11,-5.42 -12.11,-12.11l0 0z"/>
      <path fill="#F15D31" fill-rule="nonzero" d="M132.9 17.36l12.11 0c-6.69,0 -12.11,5.42 -12.11,12.11l-12.11 0c0,-6.69 5.42,-12.11 12.11,-12.11z"/>
      <path fill="#F15D31" fill-rule="nonzero" d="M145.05 29.47l12.07 0 0 -12.01c-0.05,6.64 -5.43,11.99 -12.07,12.01z"/>
      <path fill="#F9C51C" fill-rule="nonzero" d="M169.2 41.58l-12.11 0 0 -12.11c6.69,0 12.11,5.42 12.11,12.11z"/>
      <path fill="#F9C51C" fill-rule="nonzero" d="M169.2 29.47l-0.03 0c-6.64,-0.02 -12.02,-5.37 -12.08,-12.01l0 -0.1 12.11 0 0 12.11z"/>
      <path fill="#F15D31" fill-rule="nonzero" d="M169.2 5.25l-12.11 0 0 12.11c6.69,0 12.11,-5.42 12.11,-12.11z"/>
      <path fill="#F9C51C" fill-rule="nonzero" d="M253.88 17.36l12.11 0 0 -12.11c-6.69,0 -12.11,5.42 -12.11,12.11z"/>
      <path fill="#FFFDF5" fill-rule="nonzero" d="M253.88 17.36l-12.11 0 0 -12.11c6.69,0 12.11,5.42 12.11,12.11l0 0z"/>
      <path fill="#FFFDF5" fill-rule="nonzero" d="M253.88 17.36l0 12.11 12.11 0c0,-6.69 -5.42,-12.11 -12.11,-12.11l0 0z"/>
      <path fill="#F15D31" fill-rule="nonzero" d="M253.88 41.58l0 -12.11 12.11 0c0,6.7 -5.42,12.11 -12.11,12.11l0 0z"/>
      <path fill="#FE9395" fill-rule="nonzero" d="M253.88 29.47l0 -12.11 -12.11 0c0,6.7 5.42,12.11 12.11,12.11l0 0z"/>
      <path fill="#FFFDF5" fill-rule="nonzero" d="M253.88 29.47l0 12.11 -12.11 0c0,-6.69 5.42,-12.11 12.11,-12.11l0 0z"/>
      <path fill="#F15D31" fill-rule="nonzero" d="M217.55 41.58l12.11 0 0 -12.11c-6.69,0 -12.11,5.42 -12.11,12.11z"/>
      <path fill="#F9C51C" fill-rule="nonzero" d="M241.77 41.58l-12.11 0 0 -12.11c6.69,0 12.11,5.42 12.11,12.11z"/>
      <path fill="#FE9395" fill-rule="nonzero" d="M217.55 41.58l-12.11 0 0 -12.11c6.69,0 12.11,5.42 12.11,12.11l0 0z"/>
      <path fill="#FFFDF5" fill-rule="nonzero" d="M217.55 17.36l0 12.11 12.11 0c0,-6.69 -5.42,-12.11 -12.11,-12.11z"/>
      <path fill="#F9C51C" fill-rule="nonzero" d="M217.55 29.47l-0.04 0c-6.64,-0.02 -12.02,-5.37 -12.07,-12.01l0 -0.1 12.11 0 0 12.11z"/>
      <path fill="#FFFDF5" fill-rule="nonzero" d="M241.77 5.25l-12.11 0 0 12.11c6.69,0 12.11,-5.42 12.11,-12.11z"/>
      <rect fill="#FE9395" fill-rule="nonzero" x="217.55" y="5.25" width="12.11" height="12.11"/>
      <path fill="#F15D31" fill-rule="nonzero" d="M181.28 41.58l12.11 0 0 -12.11c-6.69,0 -12.11,5.42 -12.11,12.11z"/>
      <path fill="#FFFDF5" fill-rule="nonzero" d="M181.28 17.36l0 12.11 12.11 0c0,-6.69 -5.42,-12.11 -12.11,-12.11z"/>
      <rect fill="#FE9395" fill-rule="nonzero" x="181.28" y="5.25" width="12.11" height="12.11"/>
      <path fill="#FFFDF5" fill-rule="nonzero" d="M217.55 5.25l-12.11 0 0 12.11c6.69,0 12.11,-5.42 12.11,-12.11l0 0z"/>
      <path fill="#F15D31" fill-rule="nonzero" d="M229.66 17.36l-12.11 0c6.69,0 12.11,5.42 12.11,12.11l12.11 0c0,-6.69 -5.42,-12.11 -12.11,-12.11z"/>
      <path fill="#F15D31" fill-rule="nonzero" d="M217.51 29.47l-12.07 0 0 -12.01c0.05,6.64 5.43,11.99 12.07,12.01z"/>
      <path fill="#F9C51C" fill-rule="nonzero" d="M193.36 41.58l12.11 0 0 -12.11c-6.69,0 -12.11,5.42 -12.11,12.11z"/>
      <path fill="#F9C51C" fill-rule="nonzero" d="M193.36 29.47l0.04 0c6.64,-0.02 12.02,-5.37 12.07,-12.01l0 -0.1 -12.11 0 0 12.11z"/>
      <path fill="#F15D31" fill-rule="nonzero" d="M193.36 5.25l12.11 0 0 12.11c-6.69,0 -12.11,-5.42 -12.11,-12.11z"/>
      <path fill="#F9C51C" fill-rule="nonzero" d="M253.88 17.36l12.11 0 0 -12.11c-6.69,0 -12.11,5.42 -12.11,12.11z"/>
      <path fill="#FFFDF5" fill-rule="nonzero" d="M253.88 17.36l-12.11 0 0 -12.11c6.69,0 12.11,5.42 12.11,12.11l0 0z"/>
      <path fill="#FFFDF5" fill-rule="nonzero" d="M253.88 17.36l0 12.11 12.11 0c0,-6.69 -5.42,-12.11 -12.11,-12.11l0 0z"/>
      <path fill="#F15D31" fill-rule="nonzero" d="M253.88 41.58l0 -12.11 12.11 0c0,6.7 -5.42,12.11 -12.11,12.11l0 0z"/>
      <path fill="#FE9395" fill-rule="nonzero" d="M253.88 29.47l0 -12.11 -12.11 0c0,6.7 5.42,12.11 12.11,12.11l0 0z"/>
      <path fill="#FFFDF5" fill-rule="nonzero" d="M253.88 29.47l0 12.11 -12.11 0c0,-6.69 5.42,-12.11 12.11,-12.11l0 0z"/>
      <path fill="#F15D31" fill-rule="nonzero" d="M217.55 41.58l12.11 0 0 -12.11c-6.69,0 -12.11,5.42 -12.11,12.11z"/>
      <path fill="#F9C51C" fill-rule="nonzero" d="M241.77 41.58l-12.11 0 0 -12.11c6.69,0 12.11,5.42 12.11,12.11z"/>
      <path fill="#FE9395" fill-rule="nonzero" d="M217.55 41.58l-12.11 0 0 -12.11c6.69,0 12.11,5.42 12.11,12.11l0 0z"/>
      <path fill="#FFFDF5" fill-rule="nonzero" d="M217.55 17.36l0 12.11 12.11 0c0,-6.69 -5.42,-12.11 -12.11,-12.11z"/>
      <path fill="#F9C51C" fill-rule="nonzero" d="M217.55 29.47l-0.04 0c-6.64,-0.02 -12.02,-5.37 -12.07,-12.01l0 -0.1 12.11 0 0 12.11z"/>
      <path fill="#FFFDF5" fill-rule="nonzero" d="M241.77 5.25l-12.11 0 0 12.11c6.69,0 12.11,-5.42 12.11,-12.11z"/>
      <rect fill="#FE9395" fill-rule="nonzero" x="217.55" y="5.25" width="12.11" height="12.11"/>
      <path fill="#F15D31" fill-rule="nonzero" d="M181.28 41.58l12.11 0 0 -12.11c-6.69,0 -12.11,5.42 -12.11,12.11z"/>
      <path fill="#FFFDF5" fill-rule="nonzero" d="M181.28 17.36l0 12.11 12.11 0c0,-6.69 -5.42,-12.11 -12.11,-12.11z"/>
      <rect fill="#FE9395" fill-rule="nonzero" x="181.28" y="5.25" width="12.11" height="12.11"/>
      <path fill="#FFFDF5" fill-rule="nonzero" d="M217.55 5.25l-12.11 0 0 12.11c6.69,0 12.11,-5.42 12.11,-12.11l0 0z"/>
      <path fill="#F15D31" fill-rule="nonzero" d="M229.66 17.36l-12.11 0c6.69,0 12.11,5.42 12.11,12.11l12.11 0c0,-6.69 -5.42,-12.11 -12.11,-12.11z"/>
      <path fill="#F15D31" fill-rule="nonzero" d="M217.51 29.47l-12.07 0 0 -12.01c0.05,6.64 5.43,11.99 12.07,12.01z"/>
      <path fill="#F9C51C" fill-rule="nonzero" d="M193.36 41.58l12.11 0 0 -12.11c-6.69,0 -12.11,5.42 -12.11,12.11z"/>
      <path fill="#F9C51C" fill-rule="nonzero" d="M193.36 29.47l0.04 0c6.64,-0.02 12.02,-5.37 12.07,-12.01l0 -0.1 -12.11 0 0 12.11z"/>
      <path fill="#F15D31" fill-rule="nonzero" d="M193.36 5.25l12.11 0 0 12.11c-6.69,0 -12.11,-5.42 -12.11,-12.11z"/>
     </g>
     <g>
      <path fill="#F9C51C" fill-rule="nonzero" d="M-189.36 29.47l12.11 0 0 -12.11c-6.69,0 -12.11,5.42 -12.11,12.11z"/>
      <path fill="#FE9395" fill-rule="nonzero" d="M-189.36 5.25l12.11 0 0 12.11c-6.69,0 -12.11,-5.42 -12.11,-12.11z"/>
      <path fill="#FE9395" fill-rule="nonzero" d="M-165.14 17.36l-12.11 0 0 12.11c6.69,0 12.11,-5.42 12.11,-12.11l0 0z"/>
      <path fill="#FFFDF5" fill-rule="nonzero" d="M-165.14 41.58l0 -12.11 -12.11 0c0,6.69 5.42,12.11 12.11,12.11z"/>
      <path fill="#F9C51C" fill-rule="nonzero" d="M-177.25 17.36l12.11 0 0 -12.11c-6.69,0 -12.11,5.42 -12.11,12.11z"/>
      <path fill="#FFFDF5" fill-rule="nonzero" d="M-153.03 29.47l-12.11 0 0 -12.11c6.69,0 12.11,5.42 12.11,12.11z"/>
      <path fill="#F9C51C" fill-rule="nonzero" d="M-165.14 41.58l0.04 0c6.64,-0.02 12.02,-5.37 12.07,-12.01l0 -0.1 -12.11 0 0 12.11z"/>
      <path fill="#F9C51C" fill-rule="nonzero" d="M-140.92 17.36l-12.11 0 0 -12.11c6.7,0 12.11,5.42 12.11,12.11z"/>
      <path fill="#FFFDF5" fill-rule="nonzero" d="M-140.92 17.36l12.11 0 0 -12.11c-6.69,0 -12.11,5.42 -12.11,12.11l0 0z"/>
      <path fill="#FFFDF5" fill-rule="nonzero" d="M-140.92 17.36l0 12.11 -12.11 0c0,-6.69 5.42,-12.11 12.11,-12.11l0 0z"/>
      <path fill="#F15D31" fill-rule="nonzero" d="M-140.92 41.58l0 -12.11 -12.11 0c0,6.7 5.42,12.11 12.11,12.11l0 0z"/>
      <path fill="#FE9395" fill-rule="nonzero" d="M-140.92 29.47l0 -12.11 12.11 0c0,6.7 -5.42,12.11 -12.11,12.11l0 0z"/>
      <path fill="#FFFDF5" fill-rule="nonzero" d="M-140.92 29.47l0 12.11 12.11 0c0,-6.69 -5.42,-12.11 -12.11,-12.11l0 0z"/>
      <path fill="#F15D31" fill-rule="nonzero" d="M-177.25 41.58l12.11 0c-6.69,0 -12.11,-5.42 -12.11,-12.11l-12.11 0c0,6.69 5.42,12.11 12.11,12.11z"/>
      <path fill="#F15D31" fill-rule="nonzero" d="M-165.1 41.58l12.07 0 0 -12.01c-0.05,6.64 -5.43,11.99 -12.07,12.01z"/>
      <path fill="#F15D31" fill-rule="nonzero" d="M-165.1 17.36l-0.04 0 0 -12.11c6.69,0 12.11,5.42 12.11,12.11l0 0 0 12.01c-0.05,-6.63 -5.43,-11.99 -12.07,-12.01l0 0z"/>
      <path fill="#F15D31" fill-rule="nonzero" d="M-104.58 41.58l-12.11 0 0 -12.11c6.69,0 12.11,5.42 12.11,12.11z"/>
      <path fill="#F9C51C" fill-rule="nonzero" d="M-128.81 41.58l12.12 0 0 -12.11c-6.7,0 -12.12,5.42 -12.12,12.11z"/>
      <path fill="#FE9395" fill-rule="nonzero" d="M-104.58 41.58l12.11 0 0 -12.11c-6.69,0 -12.11,5.42 -12.11,12.11l0 0z"/>
      <path fill="#FFFDF5" fill-rule="nonzero" d="M-104.58 17.36l0 12.11 -12.11 0c0,-6.69 5.42,-12.11 12.11,-12.11z"/>
      <path fill="#F9C51C" fill-rule="nonzero" d="M-104.58 29.47l0.03 0c6.64,-0.02 12.02,-5.37 12.08,-12.01l0 -0.1 -12.11 0 0 12.11z"/>
      <path fill="#FFFDF5" fill-rule="nonzero" d="M-128.81 5.25l12.12 0 0 12.11c-6.7,0 -12.12,-5.42 -12.12,-12.11z"/>
      <rect fill="#FE9395" fill-rule="nonzero" x="-116.69" y="5.25" width="12.11" height="12.11"/>
      <path fill="#F15D31" fill-rule="nonzero" d="M-68.32 41.58l-12.11 0 0 -12.11c6.69,0 12.11,5.42 12.11,12.11z"/>
      <path fill="#FFFDF5" fill-rule="nonzero" d="M-68.31 17.36l0 12.11 -12.12 0c0,-6.69 5.43,-12.11 12.12,-12.11z"/>
      <rect fill="#FE9395" fill-rule="nonzero" x="-80.43" y="5.25" width="12.11" height="12.11"/>
      <path fill="#FFFDF5" fill-rule="nonzero" d="M-104.58 5.25l12.11 0 0 12.11c-6.69,0 -12.11,-5.42 -12.11,-12.11l0 0z"/>
      <path fill="#F15D31" fill-rule="nonzero" d="M-116.69 17.36l12.11 0c-6.69,0 -12.11,5.42 -12.11,12.11l-12.11 0c0,-6.69 5.42,-12.11 12.11,-12.11z"/>
      <path fill="#F15D31" fill-rule="nonzero" d="M-104.55 29.47l12.08 0 0 -12.01c-0.06,6.64 -5.44,11.99 -12.08,12.01z"/>
      <path fill="#F9C51C" fill-rule="nonzero" d="M-80.39 41.58l-12.11 0 0 -12.11c6.69,0 12.11,5.42 12.11,12.11z"/>
      <path fill="#F9C51C" fill-rule="nonzero" d="M-80.4 29.47l-0.03 0c-6.64,-0.02 -12.02,-5.37 -12.07,-12.01l0 -0.1 12.1 0 0 12.11z"/>
      <path fill="#F15D31" fill-rule="nonzero" d="M-80.39 5.25l-12.11 0 0 12.11c6.69,0 12.11,-5.42 12.11,-12.11z"/>
      <path fill="#F9C51C" fill-rule="nonzero" d="M4.29 17.36l12.11 0 0 -12.11c-6.7,0 -12.11,5.42 -12.11,12.11z"/>
      <path fill="#FFFDF5" fill-rule="nonzero" d="M4.29 17.36l-12.11 0 0 -12.11c6.69,0 12.11,5.42 12.11,12.11l0 0z"/>
      <path fill="#FFFDF5" fill-rule="nonzero" d="M4.29 17.36l0 12.11 12.11 0c0,-6.69 -5.42,-12.11 -12.11,-12.11l0 0z"/>
      <path fill="#F15D31" fill-rule="nonzero" d="M4.29 41.58l0 -12.11 12.11 0c0,6.7 -5.42,12.11 -12.11,12.11l0 0z"/>
      <path fill="#FE9395" fill-rule="nonzero" d="M4.29 29.47l0 -12.11 -12.11 0c0,6.7 5.42,12.11 12.11,12.11l0 0z"/>
      <path fill="#FFFDF5" fill-rule="nonzero" d="M4.29 29.47l0 12.11 -12.11 0c0,-6.69 5.42,-12.11 12.11,-12.11l0 0z"/>
      <path fill="#F15D31" fill-rule="nonzero" d="M-32.05 41.58l12.11 0 0 -12.11c-6.69,0 -12.11,5.42 -12.11,12.11z"/>
      <path fill="#F9C51C" fill-rule="nonzero" d="M-7.82 41.58l-12.12 0 0 -12.11c6.7,0 12.12,5.42 12.12,12.11z"/>
      <path fill="#FE9395" fill-rule="nonzero" d="M-32.05 41.58l-12.11 0 0 -12.11c6.69,0 12.11,5.42 12.11,12.11l0 0z"/>
      <path fill="#FFFDF5" fill-rule="nonzero" d="M-32.05 17.36l0 12.11 12.11 0c0,-6.69 -5.42,-12.11 -12.11,-12.11z"/>
      <path fill="#F9C51C" fill-rule="nonzero" d="M-32.05 29.47l-0.03 0c-6.64,-0.02 -12.02,-5.37 -12.08,-12.01l0 -0.1 12.11 0 0 12.11z"/>
      <path fill="#FFFDF5" fill-rule="nonzero" d="M-7.82 5.25l-12.12 0 0 12.11c6.7,0 12.12,-5.42 12.12,-12.11z"/>
      <rect fill="#FE9395" fill-rule="nonzero" x="-32.05" y="5.25" width="12.11" height="12.11"/>
      <path fill="#F15D31" fill-rule="nonzero" d="M-68.31 41.58l12.11 0 0 -12.11c-6.69,0 -12.11,5.42 -12.11,12.11z"/>
      <path fill="#FFFDF5" fill-rule="nonzero" d="M-68.32 17.36l0 12.11 12.12 0c0,-6.69 -5.43,-12.11 -12.12,-12.11z"/>
      <rect fill="#FE9395" fill-rule="nonzero" x="-68.31" y="5.25" width="12.11" height="12.11"/>
      <path fill="#FFFDF5" fill-rule="nonzero" d="M-32.05 5.25l-12.11 0 0 12.11c6.69,0 12.11,-5.42 12.11,-12.11l0 0z"/>
      <path fill="#F15D31" fill-rule="nonzero" d="M-19.94 17.36l-12.11 0c6.69,0 12.11,5.42 12.11,12.11l12.11 0c0,-6.69 -5.42,-12.11 -12.11,-12.11z"/>
      <path fill="#F15D31" fill-rule="nonzero" d="M-32.08 29.47l-12.08 0 0 -12.01c0.06,6.64 5.44,11.99 12.08,12.01z"/>
      <path fill="#F9C51C" fill-rule="nonzero" d="M-56.24 41.58l12.11 0 0 -12.11c-6.69,0 -12.11,5.42 -12.11,12.11z"/>
      <path fill="#F9C51C" fill-rule="nonzero" d="M-56.24 29.47l0.04 0c6.64,-0.02 12.02,-5.37 12.07,-12.01l0 -0.1 -12.11 0 0 12.11z"/>
      <path fill="#F15D31" fill-rule="nonzero" d="M-56.24 5.25l12.11 0 0 12.11c-6.69,0 -12.11,-5.42 -12.11,-12.11z"/>
      <path fill="#F9C51C" fill-rule="nonzero" d="M4.29 17.36l12.11 0 0 -12.11c-6.7,0 -12.11,5.42 -12.11,12.11z"/>
      <path fill="#FFFDF5" fill-rule="nonzero" d="M4.29 17.36l-12.11 0 0 -12.11c6.69,0 12.11,5.42 12.11,12.11l0 0z"/>
      <path fill="#FFFDF5" fill-rule="nonzero" d="M4.29 17.36l0 12.11 12.11 0c0,-6.69 -5.42,-12.11 -12.11,-12.11l0 0z"/>
      <path fill="#F15D31" fill-rule="nonzero" d="M4.29 41.58l0 -12.11 12.11 0c0,6.7 -5.42,12.11 -12.11,12.11l0 0z"/>
      <path fill="#FE9395" fill-rule="nonzero" d="M4.29 29.47l0 -12.11 -12.11 0c0,6.7 5.42,12.11 12.11,12.11l0 0z"/>
      <path fill="#FFFDF5" fill-rule="nonzero" d="M4.29 29.47l0 12.11 -12.11 0c0,-6.69 5.42,-12.11 12.11,-12.11l0 0z"/>
      <path fill="#F15D31" fill-rule="nonzero" d="M-32.05 41.58l12.11 0 0 -12.11c-6.69,0 -12.11,5.42 -12.11,12.11z"/>
      <path fill="#F9C51C" fill-rule="nonzero" d="M-7.82 41.58l-12.12 0 0 -12.11c6.7,0 12.12,5.42 12.12,12.11z"/>
      <path fill="#FE9395" fill-rule="nonzero" d="M-32.05 41.58l-12.11 0 0 -12.11c6.69,0 12.11,5.42 12.11,12.11l0 0z"/>
      <path fill="#FFFDF5" fill-rule="nonzero" d="M-32.05 17.36l0 12.11 12.11 0c0,-6.69 -5.42,-12.11 -12.11,-12.11z"/>
      <path fill="#F9C51C" fill-rule="nonzero" d="M-32.05 29.47l-0.03 0c-6.64,-0.02 -12.02,-5.37 -12.08,-12.01l0 -0.1 12.11 0 0 12.11z"/>
      <path fill="#FFFDF5" fill-rule="nonzero" d="M-7.82 5.25l-12.12 0 0 12.11c6.7,0 12.12,-5.42 12.12,-12.11z"/>
      <rect fill="#FE9395" fill-rule="nonzero" x="-32.05" y="5.25" width="12.11" height="12.11"/>
      <path fill="#F15D31" fill-rule="nonzero" d="M-68.31 41.58l12.11 0 0 -12.11c-6.69,0 -12.11,5.42 -12.11,12.11z"/>
      <path fill="#FFFDF5" fill-rule="nonzero" d="M-68.32 17.36l0 12.11 12.12 0c0,-6.69 -5.43,-12.11 -12.12,-12.11z"/>
      <rect fill="#FE9395" fill-rule="nonzero" x="-68.31" y="5.25" width="12.11" height="12.11"/>
      <path fill="#FFFDF5" fill-rule="nonzero" d="M-32.05 5.25l-12.11 0 0 12.11c6.69,0 12.11,-5.42 12.11,-12.11l0 0z"/>
      <path fill="#F15D31" fill-rule="nonzero" d="M-19.94 17.36l-12.11 0c6.69,0 12.11,5.42 12.11,12.11l12.11 0c0,-6.69 -5.42,-12.11 -12.11,-12.11z"/>
      <path fill="#F15D31" fill-rule="nonzero" d="M-32.08 29.47l-12.08 0 0 -12.01c0.06,6.64 5.44,11.99 12.08,12.01z"/>
      <path fill="#F9C51C" fill-rule="nonzero" d="M-56.24 41.58l12.11 0 0 -12.11c-6.69,0 -12.11,5.42 -12.11,12.11z"/>
      <path fill="#F9C51C" fill-rule="nonzero" d="M-56.24 29.47l0.04 0c6.64,-0.02 12.02,-5.37 12.07,-12.01l0 -0.1 -12.11 0 0 12.11z"/>
      <path fill="#F15D31" fill-rule="nonzero" d="M-56.24 5.25l12.11 0 0 12.11c-6.69,0 -12.11,-5.42 -12.11,-12.11z"/>
     </g>
    </g>
   </g>
   <polygon fill="none" points="0,0 84.43,0 84.43,47.49 0,47.49 "/>
   <g>
    <path fill="white" fill-rule="nonzero" d="M39.64 23.28c0.27,-0.32 0.48,-0.73 0.56,-1.2 0,-0.01 -0.01,-0.02 -0.02,-0.03 0,0 -0.01,0 -0.01,0 -0.4,1.09 -1.05,1.63 -1.97,2 -0.04,-0.15 -0.07,-0.3 -0.09,-0.46 0.35,-0.09 0.69,-0.23 0.97,-0.44 0.3,-0.22 0.55,-0.5 0.74,-0.83 0.17,-0.32 0.3,-0.64 0.37,-0.96 0.02,-0.08 0.01,-0.11 -0.02,-0.13 0,-0.01 -0.01,-0.01 -0.01,-0.01 -0.01,-0.01 -0.02,0 -0.02,0.01 -0.02,0.1 -0.05,0.17 -0.08,0.24 -0.37,0.98 -0.95,1.57 -2,1.81 -0.01,-0.17 -0.02,-0.34 -0.01,-0.51 0.74,-0.16 1.36,-0.67 1.7,-1.34 0.16,-0.31 0.27,-0.63 0.35,-0.99 0.01,-0.05 -0.03,-0.08 -0.03,-0.08 -0.01,-0.01 -0.02,-0.01 -0.03,-0.01 -0.01,-0.01 -0.03,-0.01 -0.05,-0.01 -0.36,0.09 -0.68,0.19 -0.99,0.35 -0.66,0.34 -1.17,0.96 -1.33,1.69 -0.17,0.01 -0.35,0.01 -0.52,-0.01 0.24,-1.05 0.83,-1.62 1.81,-1.99 0.07,-0.02 0.15,-0.05 0.24,-0.07 0.01,-0.01 0.02,-0.01 0.01,-0.03 0,0 0,-0.01 -0.01,-0.01 -0.02,-0.03 -0.05,-0.03 -0.13,-0.02 -0.32,0.07 -0.64,0.2 -0.96,0.38 -0.33,0.18 -0.61,0.43 -0.83,0.73 -0.2,0.28 -0.34,0.62 -0.44,0.96 -0.15,-0.02 -0.3,-0.05 -0.45,-0.09 0.37,-0.91 0.91,-1.56 1.99,-1.96 0,0 0,-0.01 0,-0.01 -0.01,-0.01 -0.02,-0.02 -0.03,-0.02 -0.47,0.08 -0.88,0.3 -1.2,0.57 -0.42,0.35 -0.77,0.8 -1.04,1.35 -0.13,-0.04 -0.26,-0.09 -0.4,-0.13 -0.4,-0.14 -1.42,-0.61 -1.82,-0.95 -0.13,-0.11 -0.19,-0.12 -0.25,-0.08 -0.02,0.01 -0.06,0.06 -0.1,0.1 -0.14,0.19 -0.29,0.52 -0.35,0.73 -0.01,0.03 0.03,0.05 0.07,0.03 0.18,-0.08 0.98,0.27 1.22,0.36 0.14,0.06 0.3,0.11 0.45,0.16 0.32,0.11 0.64,0.2 0.97,0.28 -0.02,0.05 -0.04,0.11 -0.06,0.16 -0.06,0.16 -0.1,0.32 -0.14,0.49 -0.77,-0.12 -1.42,-0.32 -1.85,-0.49 -0.29,-0.13 -0.48,-0.16 -0.61,-0.09 -0.02,0.01 -0.05,0.05 -0.04,0.11 0.04,0.18 0.09,0.36 0.18,0.54 0.07,0.14 0.11,0.1 0.18,0.08 0.1,-0.02 0.21,0.01 0.31,0.03 0.18,0.03 0.36,0.08 0.54,0.12 0.39,0.08 0.79,0.13 1.2,0.16 -0.03,0.21 -0.06,0.43 -0.07,0.63 -0.05,0 -0.1,0 -0.15,-0.01 -0.59,-0.03 -1.26,-0.19 -1.47,-0.25 -0.03,-0.01 -0.02,0.06 -0.01,0.07 0.1,0.11 0.28,0.31 0.33,0.35 0.1,0.12 0.23,0.21 0.39,0.26 0.19,0.06 0.39,0.07 0.59,0.08 0.1,0 0.2,0.01 0.3,0.01 0,0.11 0.01,0.21 0.01,0.31 0.01,0.2 0.02,0.4 0.08,0.6 0.05,0.15 0.14,0.28 0.26,0.39 0.05,0.04 0.24,0.23 0.35,0.32 0.01,0.02 0.08,0.02 0.07,0 -0.06,-0.22 -0.22,-0.89 -0.25,-1.48 -0.01,-0.05 -0.01,-0.1 -0.01,-0.16 0.2,-0.01 0.41,-0.03 0.63,-0.07 0.03,0.41 0.08,0.82 0.16,1.21 0.04,0.19 0.09,0.36 0.12,0.54 0.02,0.1 0.05,0.21 0.03,0.31 -0.02,0.07 -0.06,0.11 0.08,0.18 0.18,0.09 0.36,0.14 0.54,0.18 0.06,0.01 0.1,-0.02 0.11,-0.04 0.07,-0.13 0.04,-0.31 -0.09,-0.61 -0.17,-0.43 -0.37,-1.09 -0.49,-1.86 0.17,-0.04 0.34,-0.08 0.5,-0.14 0.05,-0.02 0.1,-0.04 0.15,-0.05 0.07,0.32 0.17,0.65 0.28,0.97 0.05,0.15 0.1,0.31 0.16,0.45 0.09,0.24 0.44,1.04 0.36,1.22 -0.02,0.04 0.01,0.08 0.03,0.07 0.22,-0.06 0.54,-0.21 0.73,-0.35 0.04,-0.04 0.09,-0.08 0.1,-0.1 0.05,-0.06 0.03,-0.12 -0.08,-0.25 -0.34,-0.4 -0.81,-1.42 -0.95,-1.82 -0.04,-0.14 -0.09,-0.27 -0.13,-0.41 0.56,-0.27 1.01,-0.62 1.37,-1.04zm-0.75 -2.3c0.28,-0.22 0.61,-0.38 0.95,-0.49 0.05,-0.02 0.11,-0.03 0.16,-0.05 -0.01,0.05 -0.03,0.11 -0.05,0.16 -0.11,0.33 -0.26,0.66 -0.48,0.94 -0.36,0.45 -0.84,0.7 -1.37,0.79 0.1,-0.52 0.35,-1 0.79,-1.35zm-1.28 1.85c-0.01,0.15 -0.02,0.31 -0.01,0.47 0,0.02 0,0.04 0,0.06 -0.19,0.02 -0.37,0.03 -0.56,0.04 0,-0.19 0.01,-0.38 0.03,-0.56 0.03,0 0.05,0 0.08,0 0.15,0 0.3,0 0.46,-0.01zm-1.39 -0.1c0.17,0.04 0.34,0.06 0.52,0.08 -0.04,0.2 -0.06,0.4 -0.08,0.59 -0.16,-0.01 -0.33,-0.02 -0.49,-0.03 -0.03,0 -0.06,-0.01 -0.08,-0.01 0.03,-0.21 0.07,-0.42 0.13,-0.63zm-0.2 1.69c0,-0.21 0,-0.42 0.02,-0.63 0.2,0.01 0.4,0 0.6,0 0,0.2 0,0.4 0,0.6 -0.21,0.02 -0.42,0.03 -0.62,0.03zm1.05 -0.07c0,-0.02 0,-0.05 0,-0.07 -0.02,-0.17 -0.03,-0.34 -0.03,-0.51 0.18,-0.01 0.38,-0.03 0.58,-0.07 0.02,0.18 0.05,0.35 0.08,0.52 -0.2,0.06 -0.41,0.1 -0.63,0.13z"/>
    <polygon fill="white" fill-rule="nonzero" points="42.03,27.5 42.12,27.5 42.12,20 42.03,20 "/>
    <g>
     <path fill="white" d="M45.99 20.24l1.75 0 0 1.75c0,0.97 -0.79,1.76 -1.75,1.76l0 0c-0.97,0 -1.76,-0.79 -1.76,-1.76l0 0c0,-0.96 0.79,-1.75 1.76,-1.75z"/>
     <path fill="white" d="M51.25 23.75l0 -3.51 -3.51 0c0,1.94 1.57,3.51 3.51,3.51z"/>
     <path fill="white" d="M47.74 27.25c0,-1.93 -1.57,-3.5 -3.51,-3.5l0 3.5 3.51 0z"/>
     <path fill="white" d="M51.25 25.5c0,-0.96 -0.79,-1.75 -1.76,-1.75 -0.96,0 -1.75,0.79 -1.75,1.75l0 1.75 1.75 0c0.97,0 1.76,-0.79 1.76,-1.75z"/>
    </g>
   </g>
  </g>
 </g>
</svg>
