<?xml version="1.0" encoding="UTF-8"?>
<!DOCTYPE svg PUBLIC "-//W3C//DTD SVG 1.1//EN" "http://www.w3.org/Graphics/SVG/1.1/DTD/svg11.dtd">
<!-- Creator: CorelDRAW -->
<svg xmlns="http://www.w3.org/2000/svg" xml:space="preserve" width="890px" height="400px" version="1.1" shape-rendering="geometricPrecision" text-rendering="geometricPrecision" image-rendering="optimizeQuality" fill-rule="evenodd" clip-rule="evenodd"
viewBox="0 0 56.02 25.17"
 xmlns:xlink="http://www.w3.org/1999/xlink"
 xmlns:xodm="http://www.corel.com/coreldraw/odm/2003">
 <defs>
   <clipPath id="id0">
    <path d="M0 0l56.02 0 0 25.17 -56.02 0 0 -25.17z"/>
   </clipPath>
 </defs>
 <g id="Layer_x0020_1">
  <metadata id="CorelCorpID_0Corel-Layer"/>
  <g>
  </g>
  <g clip-path="url(#id0)">
   <g id="_2676968960224">
    <g>
     <path fill="#B3B7C9" fill-rule="nonzero" d="M13.36 15.82c0.17,0.23 0.28,0.47 0.36,0.68 -1.12,-0.18 -1.99,-0.67 -2.5,-1.41 -0.09,-0.13 -0.17,-0.28 -0.24,-0.42 1.09,0.07 1.89,0.46 2.38,1.15zm-5.51 0.38c-0.28,0.14 -0.57,0.24 -0.88,0.29l0 -6.55c0,-0.59 0.36,-1.09 0.88,-1.28l0 7.54zm6.16 -6.62c-0.07,0.2 -0.17,0.43 -0.33,0.66 -0.48,0.7 -1.27,1.09 -2.35,1.18 0.49,-0.92 1.27,-1.61 2.68,-1.84zm-3.1 2.83c2.03,-0.01 3.06,-0.87 3.58,-1.62 0.58,-0.84 0.63,-1.71 0.63,-1.74l0.02 -0.54 -0.54 0.03c-1.7,0.1 -2.93,0.69 -3.75,1.81 -0.4,0.54 -0.67,1.14 -0.87,1.77 -0.04,0.1 -0.07,0.19 -0.1,0.29 -0.12,0.4 -0.22,0.81 -0.32,1.21 -0.06,0.24 -0.12,0.46 -0.18,0.68 -0.11,0.41 -0.3,0.78 -0.55,1.1l0 -7.81 -0.49 0c-1.3,0 -2.35,1.05 -2.35,2.35l0 7.57 0.49 0c1.59,0 3.01,-0.95 3.64,-2.37 0.08,0.18 0.18,0.35 0.29,0.51 0.79,1.13 2.17,1.8 3.9,1.9l0.54 0.03 -0.03 -0.54c0,-0.04 -0.04,-0.9 -0.63,-1.75 -0.5,-0.72 -1.5,-1.57 -3.45,-1.61 -0.02,-0.33 0.01,-0.67 0.09,-1.02 0.03,-0.08 0.05,-0.16 0.08,-0.25z"/>
     <path fill="#B3B7C9" fill-rule="nonzero" d="M8.83 14.71l0 0.69c0,0 -0.41,0.55 -0.98,0.8l0 -0.6c0.55,-0.25 0.98,-0.89 0.98,-0.89z"/>
     <path fill="#B3B7C9" fill-rule="nonzero" d="M11.4 14.71c-0.14,-0.02 -0.28,-0.03 -0.42,-0.04 -0.25,-0.47 -0.24,-0.99 -0.24,-0.99 0.12,0 0.25,0.01 0.37,0.01 0.01,0.22 0.07,0.64 0.29,1.02z"/>
     <path fill="#B3B7C9" fill-rule="nonzero" d="M11.76 11.36c-0.07,0.17 -0.24,0.6 -0.36,1.03 -0.16,0.02 -0.32,0.02 -0.48,0.02l-0.01 0c0.16,-0.56 0.4,-0.97 0.42,-0.99l0 0c0.15,-0.01 0.29,-0.03 0.43,-0.06z"/>
     <path fill="#B3B7C9" fill-rule="nonzero" d="M10.92 12.41l-0.01 0.03c0,-0.01 0,-0.02 0,-0.03l0.01 0z"/>
     <path fill="#B3B7C9" fill-rule="nonzero" d="M7.85 15.59l0 0.01c-0.01,0 -0.02,0.01 -0.03,0.01l0.03 -0.02z"/>
     <path fill="#B3B7C9" fill-rule="nonzero" d="M17.14 14.08l0.03 -1.23 1.62 -1.53 1.2 0 -1.56 1.58 -0.52 0.43 -0.77 0.75zm-0.83 0.71l0 -4.79 1.01 0 0 4.79 -1.01 0zm2.59 0l-1.18 -1.46 0.64 -0.78 1.76 2.24 -1.22 0zm3.08 0.06c-0.29,0 -0.55,-0.06 -0.78,-0.17 -0.22,-0.11 -0.4,-0.29 -0.52,-0.52 -0.13,-0.23 -0.19,-0.52 -0.19,-0.88l0 -1.96 1.01 0 0 1.81c0,0.29 0.06,0.5 0.18,0.64 0.13,0.14 0.3,0.2 0.52,0.2 0.16,0 0.3,-0.03 0.42,-0.1 0.12,-0.06 0.21,-0.17 0.28,-0.31 0.07,-0.14 0.1,-0.31 0.1,-0.52l0 -1.72 1.01 0 0 3.47 -0.95 0 0 -0.95 0.17 0.28c-0.12,0.24 -0.29,0.42 -0.51,0.54 -0.23,0.12 -0.48,0.19 -0.74,0.19zm4.46 0c-0.32,0 -0.62,-0.08 -0.88,-0.23 -0.26,-0.15 -0.47,-0.35 -0.63,-0.62 -0.15,-0.27 -0.23,-0.58 -0.23,-0.94 0,-0.37 0.08,-0.69 0.23,-0.96 0.16,-0.26 0.37,-0.47 0.63,-0.62 0.26,-0.14 0.56,-0.22 0.88,-0.22 0.3,0 0.55,0.07 0.77,0.2 0.22,0.13 0.39,0.32 0.51,0.59 0.12,0.26 0.18,0.6 0.18,1.01 0,0.4 -0.05,0.74 -0.17,1 -0.12,0.27 -0.28,0.46 -0.5,0.59 -0.22,0.13 -0.48,0.2 -0.79,0.2zm0.18 -0.83c0.16,0 0.31,-0.04 0.44,-0.12 0.14,-0.08 0.24,-0.19 0.32,-0.33 0.08,-0.15 0.12,-0.32 0.12,-0.51 0,-0.21 -0.04,-0.38 -0.12,-0.52 -0.08,-0.14 -0.18,-0.25 -0.32,-0.33 -0.13,-0.08 -0.28,-0.12 -0.44,-0.12 -0.17,0 -0.32,0.04 -0.45,0.12 -0.14,0.08 -0.24,0.19 -0.32,0.33 -0.08,0.14 -0.12,0.31 -0.12,0.52 0,0.19 0.04,0.36 0.12,0.51 0.08,0.14 0.18,0.25 0.32,0.33 0.13,0.08 0.28,0.12 0.45,0.12zm0.91 0.77l0 -0.71 0.02 -1.03 -0.07 -1.03 0 -2.02 1.01 0 0 4.79 -0.96 0zm4.03 0l0 -0.67 -0.07 -0.15 0 -1.22c0,-0.21 -0.06,-0.38 -0.2,-0.5 -0.13,-0.12 -0.33,-0.18 -0.6,-0.18 -0.18,0 -0.37,0.03 -0.55,0.08 -0.17,0.06 -0.33,0.14 -0.45,0.24l-0.36 -0.71c0.19,-0.13 0.41,-0.23 0.68,-0.31 0.27,-0.07 0.54,-0.11 0.82,-0.11 0.53,0 0.94,0.13 1.23,0.38 0.29,0.25 0.44,0.64 0.44,1.17l0 1.98 -0.94 0zm-1.06 0.06c-0.28,0 -0.51,-0.05 -0.7,-0.14 -0.2,-0.1 -0.34,-0.22 -0.45,-0.38 -0.1,-0.16 -0.15,-0.34 -0.15,-0.54 0,-0.2 0.05,-0.39 0.15,-0.54 0.1,-0.16 0.26,-0.28 0.48,-0.37 0.22,-0.08 0.51,-0.13 0.86,-0.13l0.92 0 0 0.59 -0.81 0c-0.24,0 -0.4,0.04 -0.49,0.12 -0.09,0.07 -0.13,0.17 -0.13,0.29 0,0.13 0.05,0.23 0.15,0.3 0.1,0.08 0.24,0.12 0.42,0.12 0.17,0 0.32,-0.04 0.45,-0.12 0.13,-0.08 0.23,-0.2 0.29,-0.36l0.16 0.47c-0.08,0.22 -0.21,0.39 -0.4,0.51 -0.2,0.12 -0.45,0.18 -0.75,0.18zm4.57 1.25c-0.32,0 -0.64,-0.04 -0.94,-0.12 -0.31,-0.08 -0.56,-0.2 -0.76,-0.36l0.4 -0.72c0.14,0.12 0.33,0.21 0.56,0.28 0.22,0.08 0.45,0.11 0.67,0.11 0.35,0 0.61,-0.08 0.77,-0.24 0.17,-0.16 0.25,-0.39 0.25,-0.71l0 -0.52 0.06 -0.87 -0.01 -0.88 0 -0.75 0.95 0 0 2.89c0,0.65 -0.16,1.12 -0.5,1.43 -0.34,0.31 -0.82,0.46 -1.45,0.46zm-0.15 -1.47c-0.33,0 -0.62,-0.07 -0.88,-0.21 -0.26,-0.14 -0.47,-0.34 -0.63,-0.59 -0.15,-0.25 -0.23,-0.55 -0.23,-0.88 0,-0.35 0.08,-0.64 0.23,-0.89 0.16,-0.26 0.37,-0.45 0.63,-0.59 0.26,-0.14 0.55,-0.21 0.88,-0.21 0.29,0 0.55,0.06 0.77,0.18 0.23,0.12 0.4,0.3 0.53,0.55 0.12,0.25 0.18,0.57 0.18,0.96 0,0.38 -0.06,0.69 -0.18,0.94 -0.13,0.25 -0.3,0.43 -0.53,0.55 -0.22,0.13 -0.48,0.19 -0.77,0.19zm0.2 -0.83c0.17,0 0.33,-0.04 0.47,-0.11 0.14,-0.07 0.25,-0.17 0.32,-0.3 0.08,-0.13 0.12,-0.28 0.12,-0.44 0,-0.18 -0.04,-0.33 -0.12,-0.45 -0.07,-0.13 -0.18,-0.23 -0.32,-0.3 -0.14,-0.07 -0.3,-0.11 -0.47,-0.11 -0.18,0 -0.34,0.04 -0.47,0.11 -0.14,0.07 -0.25,0.17 -0.33,0.3 -0.08,0.12 -0.12,0.27 -0.12,0.45 0,0.16 0.04,0.31 0.12,0.44 0.08,0.13 0.19,0.23 0.33,0.3 0.13,0.07 0.29,0.11 0.47,0.11zm4.98 0.99l0 -0.67 -0.07 -0.15 0 -1.22c0,-0.21 -0.07,-0.38 -0.2,-0.5 -0.13,-0.12 -0.33,-0.18 -0.6,-0.18 -0.19,0 -0.37,0.03 -0.55,0.08 -0.18,0.06 -0.33,0.14 -0.45,0.24l-0.36 -0.71c0.18,-0.13 0.41,-0.23 0.68,-0.31 0.27,-0.07 0.54,-0.11 0.81,-0.11 0.53,0 0.95,0.13 1.24,0.38 0.29,0.25 0.44,0.64 0.44,1.17l0 1.98 -0.94 0zm-1.06 0.06c-0.28,0 -0.51,-0.05 -0.7,-0.14 -0.2,-0.1 -0.35,-0.22 -0.45,-0.38 -0.1,-0.16 -0.15,-0.34 -0.15,-0.54 0,-0.2 0.05,-0.39 0.15,-0.54 0.1,-0.16 0.26,-0.28 0.48,-0.37 0.22,-0.08 0.51,-0.13 0.86,-0.13l0.92 0 0 0.59 -0.81 0c-0.24,0 -0.4,0.04 -0.49,0.12 -0.09,0.07 -0.13,0.17 -0.13,0.29 0,0.13 0.05,0.23 0.15,0.3 0.1,0.08 0.24,0.12 0.42,0.12 0.17,0 0.32,-0.04 0.45,-0.12 0.13,-0.08 0.23,-0.2 0.29,-0.36l0.16 0.47c-0.08,0.22 -0.21,0.39 -0.41,0.51 -0.19,0.12 -0.44,0.18 -0.74,0.18zm5.02 -3.59c0.28,0 0.53,0.06 0.74,0.17 0.22,0.11 0.39,0.28 0.52,0.5 0.12,0.23 0.19,0.52 0.19,0.87l0 1.99 -1.01 0 0 -1.83c0,-0.28 -0.06,-0.49 -0.19,-0.62 -0.12,-0.14 -0.29,-0.2 -0.52,-0.2 -0.16,0 -0.3,0.03 -0.43,0.1 -0.12,0.06 -0.22,0.17 -0.29,0.3 -0.08,0.14 -0.11,0.32 -0.11,0.53l0 1.72 -1.01 0 0 -3.47 0.96 0 0 0.96 -0.18 -0.29c0.13,-0.23 0.31,-0.41 0.54,-0.54 0.23,-0.12 0.5,-0.19 0.79,-0.19zm4.02 4.84c-0.33,0 -0.65,-0.04 -0.95,-0.12 -0.3,-0.08 -0.56,-0.2 -0.76,-0.36l0.4 -0.72c0.15,0.12 0.34,0.21 0.56,0.28 0.23,0.08 0.45,0.11 0.67,0.11 0.36,0 0.62,-0.08 0.78,-0.24 0.16,-0.16 0.24,-0.39 0.24,-0.71l0 -0.52 0.07 -0.87 -0.02 -0.88 0 -0.75 0.96 0 0 2.89c0,0.65 -0.17,1.12 -0.5,1.43 -0.34,0.31 -0.82,0.46 -1.45,0.46zm-0.16 -1.47c-0.32,0 -0.61,-0.07 -0.87,-0.21 -0.26,-0.14 -0.47,-0.34 -0.63,-0.59 -0.16,-0.25 -0.24,-0.55 -0.24,-0.88 0,-0.35 0.08,-0.64 0.24,-0.89 0.16,-0.26 0.37,-0.45 0.63,-0.59 0.26,-0.14 0.55,-0.21 0.87,-0.21 0.3,0 0.55,0.06 0.78,0.18 0.22,0.12 0.4,0.3 0.52,0.55 0.13,0.25 0.19,0.57 0.19,0.96 0,0.38 -0.06,0.69 -0.19,0.94 -0.12,0.25 -0.3,0.43 -0.52,0.55 -0.23,0.13 -0.48,0.19 -0.78,0.19zm0.2 -0.83c0.18,0 0.34,-0.04 0.48,-0.11 0.13,-0.07 0.24,-0.17 0.32,-0.3 0.08,-0.13 0.11,-0.28 0.11,-0.44 0,-0.18 -0.03,-0.33 -0.11,-0.45 -0.08,-0.13 -0.19,-0.23 -0.32,-0.3 -0.14,-0.07 -0.3,-0.11 -0.48,-0.11 -0.17,0 -0.33,0.04 -0.47,0.11 -0.14,0.07 -0.25,0.17 -0.32,0.3 -0.08,0.12 -0.12,0.27 -0.12,0.45 0,0.16 0.04,0.31 0.12,0.44 0.07,0.13 0.18,0.23 0.32,0.3 0.14,0.07 0.3,0.11 0.47,0.11z"/>
     <path fill="#B3B7C9" fill-rule="nonzero" d="M36.8 10.08l0.17 0.02c-0.03,0.1 -0.08,0.18 -0.15,0.23 -0.07,0.06 -0.16,0.08 -0.27,0.08 -0.14,0 -0.25,-0.04 -0.34,-0.13 -0.08,-0.08 -0.12,-0.2 -0.12,-0.36 0,-0.16 0.04,-0.29 0.12,-0.37 0.09,-0.09 0.19,-0.14 0.33,-0.14 0.13,0 0.23,0.05 0.31,0.13 0.08,0.09 0.12,0.21 0.12,0.37 0,0.01 0,0.02 0,0.04l-0.71 0c0,0.11 0.03,0.19 0.09,0.25 0.05,0.05 0.12,0.08 0.2,0.08 0.06,0 0.11,-0.02 0.15,-0.05 0.04,-0.03 0.07,-0.08 0.1,-0.15zm-0.53 -0.26l0.53 0c-0.01,-0.08 -0.03,-0.14 -0.06,-0.18 -0.05,-0.06 -0.12,-0.09 -0.2,-0.09 -0.08,0 -0.14,0.02 -0.19,0.07 -0.05,0.05 -0.08,0.12 -0.08,0.2zm0.84 0.17l0 -0.16 0.5 0 0 0.16 -0.5 0zm0.68 0.4l0 -1.32 0.16 0 0 1.32 -0.16 0zm1.07 -0.31l0.16 0.02c-0.02,0.1 -0.07,0.18 -0.14,0.23 -0.07,0.06 -0.17,0.08 -0.28,0.08 -0.14,0 -0.25,-0.04 -0.33,-0.13 -0.08,-0.08 -0.12,-0.2 -0.12,-0.36 0,-0.16 0.04,-0.29 0.12,-0.37 0.08,-0.09 0.19,-0.14 0.32,-0.14 0.13,0 0.24,0.05 0.32,0.13 0.08,0.09 0.12,0.21 0.12,0.37 0,0.01 0,0.02 0,0.04l-0.72 0c0.01,0.11 0.04,0.19 0.09,0.25 0.06,0.05 0.12,0.08 0.2,0.08 0.06,0 0.11,-0.02 0.16,-0.05 0.04,-0.03 0.07,-0.08 0.1,-0.15zm-0.54 -0.26l0.54 0c-0.01,-0.08 -0.03,-0.14 -0.06,-0.18 -0.06,-0.06 -0.12,-0.09 -0.21,-0.09 -0.07,0 -0.13,0.02 -0.18,0.07 -0.05,0.05 -0.08,0.12 -0.09,0.2zm1.54 0.45c-0.06,0.05 -0.12,0.09 -0.18,0.11 -0.05,0.02 -0.11,0.03 -0.18,0.03 -0.1,0 -0.18,-0.02 -0.24,-0.07 -0.06,-0.06 -0.09,-0.12 -0.09,-0.2 0,-0.05 0.01,-0.09 0.04,-0.13 0.02,-0.04 0.05,-0.07 0.08,-0.09 0.04,-0.03 0.07,-0.04 0.12,-0.06 0.03,0 0.08,-0.01 0.14,-0.02 0.13,-0.02 0.23,-0.03 0.29,-0.06 0,-0.02 0,-0.03 0,-0.04 0,-0.06 -0.01,-0.11 -0.04,-0.14 -0.04,-0.03 -0.11,-0.05 -0.19,-0.05 -0.07,0 -0.13,0.01 -0.17,0.04 -0.03,0.02 -0.06,0.07 -0.08,0.14l-0.16 -0.02c0.02,-0.07 0.04,-0.13 0.07,-0.17 0.04,-0.04 0.08,-0.07 0.15,-0.09 0.06,-0.03 0.13,-0.04 0.22,-0.04 0.08,0 0.15,0.01 0.2,0.03 0.05,0.02 0.09,0.04 0.11,0.07 0.02,0.03 0.04,0.07 0.05,0.11 0.01,0.03 0.01,0.08 0.01,0.15l0 0.22c0,0.15 0,0.25 0.01,0.29 0.01,0.04 0.02,0.08 0.04,0.11l-0.17 0c-0.02,-0.03 -0.03,-0.07 -0.03,-0.12zm-0.02 -0.36c-0.06,0.03 -0.14,0.05 -0.26,0.06 -0.07,0.01 -0.12,0.02 -0.14,0.03 -0.03,0.02 -0.05,0.03 -0.07,0.06 -0.01,0.02 -0.02,0.05 -0.02,0.07 0,0.05 0.01,0.08 0.05,0.11 0.03,0.03 0.08,0.05 0.14,0.05 0.06,0 0.12,-0.02 0.17,-0.05 0.05,-0.02 0.08,-0.06 0.11,-0.11 0.01,-0.03 0.02,-0.09 0.02,-0.16l0 -0.06zm0.42 0.48l0 -0.96 0.14 0 0 0.15c0.04,-0.07 0.08,-0.11 0.11,-0.14 0.03,-0.02 0.06,-0.03 0.1,-0.03 0.06,0 0.11,0.02 0.17,0.05l-0.06 0.15c-0.04,-0.02 -0.08,-0.03 -0.12,-0.03 -0.03,0 -0.06,0.01 -0.09,0.03 -0.03,0.02 -0.05,0.05 -0.06,0.09 -0.02,0.06 -0.03,0.12 -0.03,0.19l0 0.5 -0.16 0zm0.62 0l0 -0.96 0.14 0 0 0.14c0.07,-0.11 0.17,-0.16 0.31,-0.16 0.05,0 0.11,0.01 0.16,0.03 0.04,0.02 0.08,0.05 0.1,0.08 0.03,0.04 0.05,0.08 0.06,0.12 0,0.03 0,0.09 0,0.16l0 0.59 -0.16 0 0 -0.58c0,-0.07 0,-0.12 -0.02,-0.15 -0.01,-0.03 -0.03,-0.06 -0.06,-0.08 -0.04,-0.02 -0.07,-0.03 -0.12,-0.03 -0.07,0 -0.13,0.02 -0.18,0.07 -0.05,0.04 -0.07,0.13 -0.07,0.25l0 0.52 -0.16 0zm1.02 -1.14l0 -0.18 0.17 0 0 0.18 -0.17 0zm0 1.14l0 -0.96 0.17 0 0 0.96 -0.17 0zm0.42 0l0 -0.96 0.14 0 0 0.14c0.07,-0.11 0.17,-0.16 0.31,-0.16 0.05,0 0.11,0.01 0.16,0.03 0.04,0.02 0.08,0.05 0.11,0.08 0.02,0.04 0.04,0.08 0.05,0.12 0,0.03 0,0.09 0,0.16l0 0.59 -0.16 0 0 -0.58c0,-0.07 0,-0.12 -0.02,-0.15 -0.01,-0.03 -0.03,-0.06 -0.06,-0.08 -0.04,-0.02 -0.07,-0.03 -0.12,-0.03 -0.07,0 -0.13,0.02 -0.18,0.07 -0.05,0.04 -0.07,0.13 -0.07,0.25l0 0.52 -0.16 0zm0.99 0.08l0.16 0.02c0.01,0.05 0.03,0.09 0.06,0.11 0.04,0.03 0.09,0.05 0.16,0.05 0.08,0 0.14,-0.02 0.18,-0.05 0.04,-0.03 0.07,-0.07 0.08,-0.12 0.01,-0.04 0.01,-0.11 0.01,-0.21 -0.07,0.08 -0.16,0.12 -0.26,0.12 -0.14,0 -0.24,-0.04 -0.31,-0.14 -0.07,-0.1 -0.11,-0.21 -0.11,-0.34 0,-0.09 0.02,-0.18 0.05,-0.26 0.03,-0.07 0.08,-0.13 0.15,-0.17 0.06,-0.05 0.13,-0.07 0.22,-0.07 0.11,0 0.2,0.05 0.28,0.14l0 -0.12 0.15 0 0 0.83c0,0.15 -0.02,0.26 -0.05,0.32 -0.03,0.06 -0.08,0.11 -0.14,0.15 -0.07,0.03 -0.15,0.05 -0.25,0.05 -0.11,0 -0.2,-0.02 -0.27,-0.08 -0.07,-0.05 -0.11,-0.12 -0.11,-0.23zm0.14 -0.57c0,0.12 0.02,0.21 0.07,0.27 0.05,0.06 0.12,0.09 0.19,0.09 0.08,0 0.14,-0.03 0.19,-0.09 0.05,-0.06 0.08,-0.15 0.08,-0.27 0,-0.12 -0.03,-0.2 -0.08,-0.26 -0.05,-0.06 -0.12,-0.09 -0.19,-0.09 -0.07,0 -0.14,0.03 -0.19,0.08 -0.05,0.06 -0.07,0.15 -0.07,0.27zm2.07 0.14l0.15 0.02c-0.01,0.11 -0.06,0.2 -0.13,0.26 -0.07,0.06 -0.16,0.09 -0.26,0.09 -0.14,0 -0.24,-0.04 -0.32,-0.13 -0.08,-0.08 -0.12,-0.2 -0.12,-0.36 0,-0.11 0.02,-0.2 0.05,-0.28 0.04,-0.07 0.09,-0.13 0.16,-0.17 0.07,-0.04 0.14,-0.06 0.23,-0.06 0.1,0 0.19,0.03 0.25,0.08 0.07,0.05 0.11,0.13 0.13,0.23l-0.16 0.02c-0.01,-0.07 -0.04,-0.11 -0.08,-0.15 -0.04,-0.03 -0.08,-0.04 -0.14,-0.04 -0.08,0 -0.14,0.02 -0.2,0.08 -0.05,0.06 -0.07,0.15 -0.07,0.28 0,0.13 0.02,0.22 0.07,0.28 0.05,0.06 0.11,0.09 0.19,0.09 0.07,0 0.12,-0.02 0.16,-0.06 0.05,-0.04 0.07,-0.1 0.09,-0.18zm0.95 0.04l0.17 0.02c-0.03,0.1 -0.08,0.18 -0.15,0.23 -0.07,0.06 -0.16,0.08 -0.27,0.08 -0.14,0 -0.25,-0.04 -0.34,-0.13 -0.08,-0.08 -0.12,-0.2 -0.12,-0.36 0,-0.16 0.04,-0.29 0.12,-0.37 0.09,-0.09 0.19,-0.14 0.33,-0.14 0.13,0 0.23,0.05 0.31,0.13 0.08,0.09 0.12,0.21 0.12,0.37 0,0.01 0,0.02 0,0.04l-0.71 0c0,0.11 0.03,0.19 0.09,0.25 0.05,0.05 0.12,0.08 0.2,0.08 0.06,0 0.11,-0.02 0.15,-0.05 0.04,-0.03 0.07,-0.08 0.1,-0.15zm-0.53 -0.26l0.53 0c-0.01,-0.08 -0.03,-0.14 -0.06,-0.18 -0.05,-0.06 -0.12,-0.09 -0.2,-0.09 -0.08,0 -0.14,0.02 -0.19,0.07 -0.05,0.05 -0.08,0.12 -0.08,0.2zm0.9 0.57l0 -0.96 0.15 0 0 0.14c0.07,-0.11 0.17,-0.16 0.3,-0.16 0.06,0 0.12,0.01 0.16,0.03 0.05,0.02 0.09,0.05 0.11,0.08 0.03,0.04 0.04,0.08 0.05,0.12 0.01,0.03 0.01,0.09 0.01,0.16l0 0.59 -0.16 0 0 -0.58c0,-0.07 -0.01,-0.12 -0.02,-0.15 -0.01,-0.03 -0.03,-0.06 -0.07,-0.08 -0.03,-0.02 -0.07,-0.03 -0.11,-0.03 -0.07,0 -0.13,0.02 -0.18,0.07 -0.05,0.04 -0.07,0.13 -0.07,0.25l0 0.52 -0.17 0zm1.39 -0.14l0.02 0.14c-0.05,0.01 -0.09,0.02 -0.12,0.02 -0.06,0 -0.11,-0.01 -0.14,-0.03 -0.03,-0.02 -0.06,-0.05 -0.07,-0.08 -0.01,-0.03 -0.02,-0.09 -0.02,-0.19l0 -0.55 -0.12 0 0 -0.13 0.12 0 0 -0.24 0.16 -0.09 0 0.33 0.17 0 0 0.13 -0.17 0 0 0.56c0,0.05 0.01,0.08 0.01,0.09 0.01,0.01 0.02,0.02 0.03,0.03 0.01,0.01 0.03,0.01 0.05,0.01 0.02,0 0.05,0 0.08,0zm0.81 -0.17l0.17 0.02c-0.03,0.1 -0.08,0.18 -0.15,0.23 -0.07,0.06 -0.16,0.08 -0.27,0.08 -0.14,0 -0.25,-0.04 -0.33,-0.13 -0.09,-0.08 -0.13,-0.2 -0.13,-0.36 0,-0.16 0.04,-0.29 0.13,-0.37 0.08,-0.09 0.19,-0.14 0.32,-0.14 0.13,0 0.23,0.05 0.31,0.13 0.08,0.09 0.13,0.21 0.13,0.37 0,0.01 0,0.02 -0.01,0.04l-0.71 0c0.01,0.11 0.04,0.19 0.09,0.25 0.05,0.05 0.12,0.08 0.2,0.08 0.06,0 0.11,-0.02 0.15,-0.05 0.04,-0.03 0.08,-0.08 0.1,-0.15zm-0.53 -0.26l0.53 0c0,-0.08 -0.02,-0.14 -0.06,-0.18 -0.05,-0.06 -0.12,-0.09 -0.2,-0.09 -0.07,0 -0.14,0.02 -0.19,0.07 -0.05,0.05 -0.08,0.12 -0.08,0.2zm0.9 0.57l0 -0.96 0.15 0 0 0.15c0.04,-0.07 0.07,-0.11 0.1,-0.14 0.04,-0.02 0.07,-0.03 0.11,-0.03 0.05,0 0.11,0.02 0.17,0.05l-0.06 0.15c-0.04,-0.02 -0.08,-0.03 -0.12,-0.03 -0.04,0 -0.07,0.01 -0.1,0.03 -0.02,0.02 -0.04,0.05 -0.06,0.09 -0.01,0.06 -0.02,0.12 -0.02,0.19l0 0.5 -0.17 0z"/>
    </g>
   </g>
  </g>
  <polygon fill="none" points="0,0 56.02,0 56.02,25.17 0,25.17 "/>
 </g>
</svg>
